// Jest Snapshot v1, https://goo.gl/fbAQLP

exports[`should display the profile overview once the profile details are loaded 1`] = `
<Component
  articles={
    Array [
      Object {
        "identifier": "arbitrary-id-1",
      },
      Object {
        "identifier": "arbitrary-id-2",
      },
    ]
  }
  isFlockademicUser={true}
  person={
    Object {
      "description": "Arbitrary ORCID biography",
      "identifier": "arbitrary_account_id",
      "name": "Arbitrary name",
      "sameAs": Array [
        Object {
          "roleName": "Arbitrary website name",
          "sameAs": "arbitrary-url",
        },
      ],
    }
  }
  profileIsCurrentUser={false}
  url="https://arbitrary_url"
/>
`;
